Chapter 1 Analisis Exploratorio De Datos | bookdown-demo.knit
…
df$Fecha <- as.Date(as.numeric(df$Fecha), origin = "1899-12-30")

## Warning in as.Date(as.numeric(df$Fecha), origin = "1899-12-30"): NAs
## introducidos por coerción

df <- df %>% filter(!is.na(Fecha))
df

## # A tibble: 330 × 8
##    Fecha      CreditosConsumo CreditosTesoreria CreditosOrdinarios
##    <date>               <dbl>             <dbl>              <dbl>
##  1 1998-03-31            42.2              37.2               36.5
##  2 1998-04-30            44.1              41.6               38.8
##  3 1998-05-31            45.3              37.8               40.3
##  4 1998-06-30            48.4              56.4               47.1
##  5 1998-07-31            51.6              42.7               48.1
##  6 1998-08-31            50.5              37.1               43.7
##  7 1998-09-30            51.1              49.9               46.4
##  8 1998-10-31            52.0              47.3               49.5
##  9 1998-11-30            52.3              43.4               47.6
## 10 1998-12-31            51.6              40.0               46.1
## # ℹ 320 more rows
## # ℹ 4 more variables: CreditosPreferenciales <dbl>, TasaColocacionBR <dbl>,
## #   TasaColocacionSinTesoreria <dbl>, TasaColocacionTotal <dbl>
…
